{
  "version": "1.1",
  "licenses": [
    {
      "count": 3,
      "name": "MIT"
    },
    {
      "count": 1,
      "name": "ISC"
    },
    {
      "count": 1,
      "name": "New BSD"
    },
    {
      "count": 1,
      "name": "unknown"
    }
  ],
  "dependencies": [
    {
      "licenses": [
        {
          "name": "ISC",
          "url": "http://en.wikipedia.org/wiki/ISC_license"
        }
      ],
      "license": {
        "name": "ISC",
        "url": "http://en.wikipedia.org/wiki/ISC_license"
      },
      "dependency": {
        "name": "github.com/davecgh/go-spew",
        "description": "",
        "pathes": [
          "."
        ]
      }
    },
    {
      "licenses": [
        {
          "name": "MIT",
          "url": "http://opensource.org/licenses/mit-license"
        }
      ],
      "license": {
        "name": "MIT",
        "url": "http://opensource.org/licenses/mit-license"
      },
      "dependency": {
        "name": "github.com/konsorten/go-windows-terminal-sequences",
        "description": "",
        "pathes": [
          "."
        ]
      }
    },
    {
      "licenses": [
        {
          "name": "unknown",
          "url": ""
        }
      ],
      "license": {
        "name": "unknown"
      },
      "dependency": {
        "name": "github.com/pmezard/go-difflib",
        "description": "",
        "pathes": [
          "."
        ]
      }
    },
    {
      "licenses": [
        {
          "name": "MIT",
          "url": "http://opensource.org/licenses/mit-license"
        }
      ],
      "license": {
        "name": "MIT",
        "url": "http://opensource.org/licenses/mit-license"
      },
      "dependency": {
        "name": "github.com/sirupsen/logrus",
        "description": "",
        "pathes": [
          "."
        ]
      }
    },
    {
      "licenses": [
        {
          "name": "MIT",
          "url": "http://opensource.org/licenses/mit-license"
        }
      ],
      "license": {
        "name": "MIT",
        "url": "http://opensource.org/licenses/mit-license"
      },
      "dependency": {
        "name": "github.com/stretchr/testify",
        "description": "",
        "pathes": [
          "."
        ]
      }
    },
    {
      "licenses": [
        {
          "name": "New BSD",
          "url": "http://opensource.org/licenses/BSD-3-Clause"
        }
      ],
      "license": {
        "name": "New BSD",
        "url": "http://opensource.org/licenses/BSD-3-Clause"
      },
      "dependency": {
        "name": "golang.org/x/sys",
        "description": "",
        "pathes": [
          "."
        ]
      }
    }
  ]
}